a04
…
a04

library(readr)
library(dplyr)

library(here)
library(lubridate)

#Separate categories of data were imported from the ‘package:base’?

library(here)

read_csv(here("data", "raw data", "52_pp52_birds_1.csv"))

# A tibble: 40,425 × 9
   survey_id site_id species_id distance bird_count notes  seen heard direction
       <dbl> <chr>   <chr>      <chr>         <dbl> <chr> <dbl> <dbl> <chr>    
 1       144 LI-S    HOSP       5-10              4 <NA>      1     1 NE       
 2       145 LI-W    HOSP       20-40            10 <NA>      0     1 E        
 3       145 LI-W    AUWA       20-40             2 <NA>      0     1 SE       
 4       145 LI-W    RODO       FT                2 <NA>      1     0 E        
 5       145 LI-W    GTGR       >40               2 <NA>      0     1 NE       
 6       145 LI-W    WCSP       20-40             3 <NA>      0     1 N        
 7       145 LI-W    WCSP       20-40             3 <NA>      0     1 E        
 8       145 LI-W    GTGR       FT                2 <NA>      1     1 E        
 9       145 LI-W    RODO       FT                2 <NA>      1     0 S        
10       145 LI-W    MODO       FT                3 <NA>      1     0 E        
# ℹ 40,415 more rows

read_csv(here("data", "raw data", "52_pp52_surveys_1.csv"))

# A tibble: 2,004 × 12
   site_id survey_id survey_date         time_start          time_end           
   <chr>       <dbl> <dttm>              <dttm>              <dttm>             
 1 EA-C            1 2001-01-11 00:00:00 1899-12-30 11:15:00 1899-12-30 11:30:00
 2 EA-W            2 2001-01-11 00:00:00 1899-12-30 10:50:00 1899-12-30 11:05:00
 3 WR-C            3 2000-12-08 00:00:00 1899-12-30 09:40:00 1899-12-30 09:55:00
 4 SO-C            4 2000-12-12 00:00:00 1899-12-30 09:35:00 1899-12-30 09:50:00
 5 CG-C            5 2000-12-13 00:00:00 1899-12-30 09:35:00 1899-12-30 09:50:00
 6 AT-C            6 2000-12-29 00:00:00 1899-12-30 07:55:00 1899-12-30 08:10:00
 7 LO-C            7 2001-01-18 00:00:00 1899-12-30 07:35:00 1899-12-30 07:50:00
 8 ED-N            8 2001-01-18 00:00:00 1899-12-30 08:05:00 1899-12-30 08:20:00
 9 ED-C            9 2001-01-18 00:00:00 1899-12-30 08:30:00 1899-12-30 08:45:00
10 WT-C           10 2001-01-04 00:00:00 1899-12-30 07:40:00 1899-12-30 07:55:00
# ℹ 1,994 more rows
# ℹ 7 more variables: observer <chr>, wind_speed <dbl>, wind_dir <chr>,
#   air_temp <dbl>, temp_units <lgl>, cloud_cover <dbl>, notes <chr>

read_csv(here("data", "raw data", "52_pp52_sites_1.csv"))

# A tibble: 221 × 7
   site_id park_code park_district park_name point_code point_location
   <chr>   <chr>     <chr>         <chr>     <chr>      <lgl>         
 1 AT-100  AT        <NA>          Altadena  <NA>       NA            
 2 AT-200  AT        <NA>          Altadena  <NA>       NA            
 3 AT-400  AT        <NA>          Altadena  <NA>       NA            
 4 AT-800  AT        <NA>          Altadena  <NA>       NA            
 5 AT-C    AT        NE            Altadena  C          NA            
 6 AT-E    AT        NE            Altadena  E          NA            
 7 AT-N    AT        NE            Altadena  N          NA            
 8 AT-NE   AT        <NA>          Altadena  NE         NA            
 9 AT-NW   AT        <NA>          Altadena  NW         NA            
10 AT-S    AT        NE            Altadena  S          NA            
# ℹ 211 more rows
# ℹ 1 more variable: park_acreage <lgl>

read_csv(here("data", "raw data", "52_pp52_taxalist_1.csv"))

# A tibble: 259 × 3
   species_id common_name             asu_itis
   <chr>      <chr>                      <dbl>
 1 ABTO       Abert's Towhee            208475
 2 AMCO       American Coot             142696
 3 AMGO       American Goldfinch        207867
 4 AMKE       American Kestrel          122194
 5 AMPI       American Pipit                NA
 6 AMRO       American Robin            212184
 7 AMWI       American Wigeon           118948
 8 ANHU       Anna's Hummingbird        183554
 9 ATFL       Ash-throated Flycatcher   185497
10 AUWA       Audubon's Warbler             NA
# ℹ 249 more rows
…
